{
    "swagger": "2.0",
    "info": {
        "title": "Customers API",
        "description": "A Customers API Implementation",
        "termsOfService": "https://www.google.com/policies/terms/",
        "contact": {
            "email": "lfniederauer@gmail.com"
        },
        "license": {
            "name": "MIT"
        },
        "version": "v1"
    },
    "basePath": "/",
    "consumes": [
        "application/json"
    ],
    "produces": [
        "application/json"
    ],
    "securityDefinitions": {
        "basic": {
            "type": "basic"
        }
    },
    "security": [
        {
            "basic": []
        }
    ],
    "paths": {
        "/customers/": {
            "get": {
                "operationId": "customers_list",
                "description": "This view returns the customers list in JSON.",
                "parameters": [],
                "responses": {
                    "200": {
                        "description": "",
                        "schema": {
                            "type": "array",
                            "items": {
                                "$ref": "#/definitions/Customer"
                            }
                        }
                    }
                },
                "tags": [
                    "customers"
                ]
            },
            "parameters": []
        },
        "/customers/{id}/": {
            "get": {
                "operationId": "customers_read",
                "description": "This view returns a particular customers according to the id.",
                "parameters": [],
                "responses": {
                    "200": {
                        "description": "",
                        "schema": {
                            "$ref": "#/definitions/Customer"
                        }
                    }
                },
                "tags": [
                    "customers"
                ]
            },
            "parameters": [
                {
                    "name": "id",
                    "in": "path",
                    "description": "A unique integer value identifying this ('Customer',).",
                    "required": true,
                    "type": "integer"
                }
            ]
        }
    },
    "definitions": {
        "Customer": {
            "required": [
                "first_name",
                "last_name",
                "email",
                "gender",
                "company",
                "city",
                "title"
            ],
            "type": "object",
            "properties": {
                "id": {
                    "title": "ID",
                    "type": "integer",
                    "readOnly": true
                },
                "first_name": {
                    "title": "Customer's first name",
                    "type": "string",
                    "maxLength": 62,
                    "minLength": 1
                },
                "last_name": {
                    "title": "Customer's last name",
                    "type": "string",
                    "maxLength": 62,
                    "minLength": 1
                },
                "email": {
                    "title": "Customer's email",
                    "type": "string",
                    "format": "email",
                    "maxLength": 254,
                    "minLength": 1
                },
                "gender": {
                    "title": "Customer's gender",
                    "type": "string",
                    "enum": [
                        "Male"
                    ]
                },
                "company": {
                    "title": "Customer's company name",
                    "type": "string",
                    "maxLength": 62,
                    "minLength": 1
                },
                "city": {
                    "title": "Customer's first name",
                    "type": "string",
                    "maxLength": 62,
                    "minLength": 1
                },
                "title": {
                    "title": "Customer's first name",
                    "type": "string",
                    "maxLength": 62,
                    "minLength": 1
                },
                "lat": {
                    "title": "Lat",
                    "type": "string",
                    "format": "decimal",
                    "x-nullable": true
                },
                "lon": {
                    "title": "Lon",
                    "type": "string",
                    "format": "decimal",
                    "x-nullable": true
                }
            }
        }
    }
}
